love.math (Français)
Config Files (Français)
ParticleSystem:getOffset (Français)
ParticleSystem:setOffset (Français)
ParticleSystem:getQuads (Français)
ParticleSystem:setQuads (Français)
ParticleSystem:getRotation (Français)
ParticleSystem:setRotation (Français)
ParticleSystem:setRotation
ParticleSystem:setPosition (Français)
ParticleSystem:getPosition (Français)
ParticleSystem:setSpinVariation (Français)
ParticleSystem (Français)
ParticleSystem:setSpin (Français)
AreaSpreadDistribution (Français)
ParticleSystem:getSpeed (Français)
ParticleSystem:setTangentialAcceleration (Français)
ParticleSystem:getSpin (Français)
ParticleSystem:getLinearDamping (Français)
ParticleSystem:setLinearDamping (Français)
ParticleSystem:start (Français)
ParticleSystem:stop (Français)
ParticleSystem:pause (Français)
ParticleSystem:getInsertMode (Français)
ParticleInsertMode (Français)
ParticleSystem:setInsertMode (Français)
ParticleSystem:setSpeed (Français)
ParticleSystem:reset (Français)
ParticleSystem:setSizeVariation (Français)
ParticleSystem:setSizes (Français)
ParticleSystem:setLinearAcceleration (Français)
ParticleSystem:moveTo (Français)
ParticleSystem:setParticleLifetime (Français)
ParticleSystem:setEmitterLifetime (Français)
ParticleSystem:getTexture (Français)
ParticleSystem:setTexture (Français)
ParticleSystem:setColors (Français)
ParticleSystem:setDirection (Français)
ParticleSystem:getCount (Français)
ParticleSystem:setBufferSize (Français)
ParticleSystem:getBufferSize (Français)
ParticleSystem:emit (Français)
ParticleSystem:clone (Français)
love.graphics.translate (Français)
StackType (Français)
love.graphics.push (Français)
love.graphics.pop (Français)
love.graphics.origin (Français)
love.graphics.line (Français)
Object (Français)
WheelJoint (Français)
WeldJoint (Français)
love.math.newTransform (Français)
love.graphics.applyTransform (Français)
Transform (Français)
RopeJoint (Français)
RevoluteJoint (Français)
RandomGenerator (Français)
PulleyJoint (Français)
PrismaticJoint (Français)
PixelEffect (Français)
Shader (Français)
MouseJoint (Français)
MotorJoint (Français)
GlyphData (Français)
GearJoint (Français)
FrictionJoint (Français)
DistanceJoint (Français)
BezierCurve (Français)
Building LÖVE
light userdata (Français)
flat table (Français)
Category:Lua (Français)
local (Français)
local
function (Français)
nil (Français)
boolean (Français)
